<svg xmlns="http://www.w3.org/2000/svg" width="24.667" height="21.029" viewBox="0 0 24.667 21.029">
  <g id="Group_259" data-name="Group 259" transform="translate(-163 -1350)">
    <g id="Group_253" data-name="Group 253" transform="translate(164 1351)">
      <path id="Rectangle_5" data-name="Rectangle 5" d="M165.273,1365.9h18.119a2.28,2.28,0,0,1,2.273,2.273v11.8a2.28,2.28,0,0,1-2.273,2.273H165.273a2.28,2.28,0,0,1-2.273-2.273v-11.8A2.28,2.28,0,0,1,165.273,1365.9Z" transform="translate(-163 -1363.217)" fill="none" stroke="#5dff00" stroke-linecap="round" stroke-linejoin="round" stroke-width="2"/>
      <path id="Rectangle_160" data-name="Rectangle 160" d="M165.273,1365.9h18.119a2.28,2.28,0,0,1,2.273,2.273v1.773H163v-1.773A2.28,2.28,0,0,1,165.273,1365.9Z" transform="translate(-163 -1363.217)" fill="none" stroke="#5dff00" stroke-linecap="round" stroke-linejoin="round" stroke-width="2"/>
      <path id="Path_11271" data-name="Path 11271" d="M196.288,1387.9l1.5,3.047,3.342.477-2.433,2.364.568,3.342-3-1.569-3,1.569.568-3.342-2.433-2.364,3.342-.477Z" transform="translate(-184.943 -1380.216)" fill="none" stroke="#5dff00" stroke-linecap="round" stroke-linejoin="round" stroke-width="2"/>
      <g id="Group_252" data-name="Group 252" transform="translate(5.934 0)">
        <line id="Line_10" data-name="Line 10" y2="3.91" transform="translate(10.799)" fill="none" stroke="#5dff00" stroke-linecap="round" stroke-linejoin="round" stroke-width="2"/>
        <line id="Line_11" data-name="Line 11" y2="3.91" transform="translate(0)" fill="none" stroke="#5dff00" stroke-linecap="round" stroke-linejoin="round" stroke-width="2"/>
      </g>
    </g>
  </g>
</svg>
